model/ALU_test.vcd
$date
  Fri Feb 15 01:57:14 2019
$end
$version
  GHDL v0
$end
$timescale
  1 fs
$end
$var reg 7 ! inputs[0:6] $end
$var reg 2 " outputs[0:1] $end
$var reg 1 # c_outs $end
$scope module uut $end
$var reg 3 $ alu_s[0:2] $end
$var reg 2 % alu_i[0:1] $end
$var reg 2 & alu_j[0:1] $end
$var reg 2 ' alu_out[0:1] $end
$var reg 1 ( alu_c_out $end
$var reg 8 ) demux0_res[0:7] $end
$var reg 8 * demux1_res[0:7] $end
$var reg 8 + demux2_res[0:7] $end
$var reg 8 , demux3_res[0:7] $end
$var reg 4 - demux_to_op_0[0:3] $end
$var reg 4 . demux_to_op_1[0:3] $end
$var reg 4 / demux_to_op_2[0:3] $end
$var reg 4 0 demux_to_op_3[0:3] $end
$var reg 4 1 demux_to_op_4[0:3] $end
$var reg 4 2 demux_to_op_5[0:3] $end
$var reg 4 3 demux_to_op_6[0:3] $end
$var reg 4 4 demux_to_op_7[0:3] $end
$var reg 2 5 op0_out[0:1] $end
$var reg 2 6 op1_out[0:1] $end
$var reg 2 7 op2_out[0:1] $end
$var reg 2 8 op3_out[0:1] $end
$var reg 2 9 op4_out[0:1] $end
$var reg 2 : op5_out[0:1] $end
$var reg 2 ; op6_out[0:1] $end
$var reg 2 < op7_out[0:1] $end
$var reg 1 = op0_c_out $end
$var reg 1 > op1_c_out $end
$var reg 1 ? op2_c_out $end
$var reg 1 @ op3_c_out $end
$var reg 1 A op4_c_out $end
$var reg 1 B op5_c_out $end
$var reg 1 C op6_c_out $end
$var reg 1 D op7_c_out $end
$var reg 8 E op_to_mux_0[0:7] $end
$var reg 8 F op_to_mux_1[0:7] $end
$var reg 8 G op_to_mux_2[0:7] $end
$scope module demux0 $end
$var reg 3 H s[0:2] $end
$var reg 1 I i $end
$var reg 8 J o[0:7] $end
$upscope $end
$scope module demux1 $end
$var reg 3 K s[0:2] $end
$var reg 1 L i $end
$var reg 8 M o[0:7] $end
$upscope $end
$scope module demux2 $end
$var reg 3 N s[0:2] $end
$var reg 1 O i $end
$var reg 8 P o[0:7] $end
$upscope $end
$scope module demux3 $end
$var reg 3 Q s[0:2] $end
$var reg 1 R i $end
$var reg 8 S o[0:7] $end
$upscope $end
$scope module demux_to_op0 $end
$var reg 1 T a $end
$var reg 1 U b $end
$var reg 1 V c $end
$var reg 1 W d $end
$var reg 4 X o[0:3] $end
$upscope $end
$scope module demux_to_op1 $end
$var reg 1 Y a $end
$var reg 1 Z b $end
$var reg 1 [ c $end
$var reg 1 \ d $end
$var reg 4 ] o[0:3] $end
$upscope $end
$scope module demux_to_op2 $end
$var reg 1 ^ a $end
$var reg 1 _ b $end
$var reg 1 ` c $end
$var reg 1 a d $end
$var reg 4 b o[0:3] $end
$upscope $end
$scope module demux_to_op3 $end
$var reg 1 c a $end
$var reg 1 d b $end
$var reg 1 e c $end
$var reg 1 f d $end
$var reg 4 g o[0:3] $end
$upscope $end
$scope module demux_to_op4 $end
$var reg 1 h a $end
$var reg 1 i b $end
$var reg 1 j c $end
$var reg 1 k d $end
$var reg 4 l o[0:3] $end
$upscope $end
$scope module demux_to_op5 $end
$var reg 1 m a $end
$var reg 1 n b $end
$var reg 1 o c $end
$var reg 1 p d $end
$var reg 4 q o[0:3] $end
$upscope $end
$scope module demux_to_op6 $end
$var reg 1 r a $end
$var reg 1 s b $end
$var reg 1 t c $end
$var reg 1 u d $end
$var reg 4 v o[0:3] $end
$upscope $end
$scope module demux_to_op7 $end
$var reg 1 w a $end
$var reg 1 x b $end
$var reg 1 y c $end
$var reg 1 z d $end
$var reg 4 { o[0:3] $end
$upscope $end
$scope module and2 $end
$var reg 2 | a[0:1] $end
$var reg 2 } b[0:1] $end
$var reg 2 !" o[0:1] $end
$upscope $end
$scope module or2 $end
$var reg 2 "" a[0:1] $end
$var reg 2 #" b[0:1] $end
$var reg 2 $" o[0:1] $end
$upscope $end
$scope module xor2 $end
$var reg 2 %" a[0:1] $end
$var reg 2 &" b[0:1] $end
$var reg 2 '" o[0:1] $end
$upscope $end
$scope module not2 $end
$var reg 2 (" a[0:1] $end
$var reg 2 )" o[0:1] $end
$upscope $end
$scope module add $end
$var reg 2 *" a[0:1] $end
$var reg 2 +" b[0:1] $end
$var reg 2 ," o[0:1] $end
$var reg 1 -" c_out_2 $end
$var reg 1 ." c_out_1 $end
$var reg 1 /" no_c_in $end
$scope module add0 $end
$var reg 1 0" a $end
$var reg 1 1" b $end
$var reg 1 2" c_in $end
$var reg 1 3" o $end
$var reg 1 4" c_out $end
$var reg 1 5" sum_1 $end
$upscope $end
$scope module add1 $end
$var reg 1 6" a $end
$var reg 1 7" b $end
$var reg 1 8" c_in $end
$var reg 1 9" o $end
$var reg 1 :" c_out $end
$var reg 1 ;" sum_1 $end
$upscope $end
$upscope $end
$scope module sub_1c $end
$var reg 2 <" a[0:1] $end
$var reg 2 =" b[0:1] $end
$var reg 2 >" o[0:1] $end
$var reg 1 ?" c_out_2 $end
$var reg 2 @" complement[0:1] $end
$scope module comp $end
$var reg 2 A" a[0:1] $end
$var reg 2 B" o[0:1] $end
$upscope $end
$scope module sub0 $end
$var reg 2 C" a[0:1] $end
$var reg 2 D" b[0:1] $end
$var reg 2 E" o[0:1] $end
$var reg 1 F" c_out_2 $end
$var reg 1 G" c_out_1 $end
$var reg 1 H" no_c_in $end
$scope module add0 $end
$var reg 1 I" a $end
$var reg 1 J" b $end
$var reg 1 K" c_in $end
$var reg 1 L" o $end
$var reg 1 M" c_out $end
$var reg 1 N" sum_1 $end
$upscope $end
$scope module add1 $end
$var reg 1 O" a $end
$var reg 1 P" b $end
$var reg 1 Q" c_in $end
$var reg 1 R" o $end
$var reg 1 S" c_out $end
$var reg 1 T" sum_1 $end
$upscope $end
$upscope $end
$upscope $end
$scope module sub_2c $end
$var reg 2 U" a[0:1] $end
$var reg 2 V" b[0:1] $end
$var reg 2 W" o[0:1] $end
$var reg 1 X" c_out_2 $end
$var reg 2 Y" complement[0:1] $end
$scope module comp $end
$var reg 2 Z" a[0:1] $end
$var reg 2 [" o[0:1] $end
$upscope $end
$scope module sub0 $end
$var reg 2 \" a[0:1] $end
$var reg 2 ]" b[0:1] $end
$var reg 2 ^" o[0:1] $end
$var reg 1 _" c_out_2 $end
$var reg 1 `" c_out_1 $end
$var reg 1 a" no_c_in $end
$scope module add0 $end
$var reg 1 b" a $end
$var reg 1 c" b $end
$var reg 1 d" c_in $end
$var reg 1 e" o $end
$var reg 1 f" c_out $end
$var reg 1 g" sum_1 $end
$upscope $end
$scope module add1 $end
$var reg 1 h" a $end
$var reg 1 i" b $end
$var reg 1 j" c_in $end
$var reg 1 k" o $end
$var reg 1 l" c_out $end
$var reg 1 m" sum_1 $end
$upscope $end
$upscope $end
$upscope $end
$scope module inc $end
$var reg 2 n" a[0:1] $end
$var reg 2 o" b[0:1] $end
$var reg 2 p" o[0:1] $end
$var reg 1 q" c_out $end
$scope module inc $end
$var reg 2 r" a[0:1] $end
$var reg 2 s" b[0:1] $end
$var reg 2 t" o[0:1] $end
$var reg 1 u" c_out_2 $end
$var reg 1 v" c_out_1 $end
$var reg 1 w" no_c_in $end
$scope module add0 $end
$var reg 1 x" a $end
$var reg 1 y" b $end
$var reg 1 z" c_in $end
$var reg 1 {" o $end
$var reg 1 |" c_out $end
$var reg 1 }" sum_1 $end
$upscope $end
$scope module add1 $end
$var reg 1 !# a $end
$var reg 1 "# b $end
$var reg 1 ## c_in $end
$var reg 1 $# o $end
$var reg 1 %# c_out $end
$var reg 1 &# sum_1 $end
$upscope $end
$upscope $end
$upscope $end
$scope module op_to_mux0 $end
$var reg 1 '# a $end
$var reg 1 (# b $end
$var reg 1 )# c $end
$var reg 1 *# d $end
$var reg 1 +# e $end
$var reg 1 ,# f $end
$var reg 1 -# g $end
$var reg 1 .# h $end
$var reg 8 /# o[0:7] $end
$upscope $end
$scope module op_to_mux1 $end
$var reg 1 0# a $end
$var reg 1 1# b $end
$var reg 1 2# c $end
$var reg 1 3# d $end
$var reg 1 4# e $end
$var reg 1 5# f $end
$var reg 1 6# g $end
$var reg 1 7# h $end
$var reg 8 8# o[0:7] $end
$upscope $end
$scope module op_to_mux2 $end
$var reg 1 9# a $end
$var reg 1 :# b $end
$var reg 1 ;# c $end
$var reg 1 <# d $end
$var reg 1 =# e $end
$var reg 1 ># f $end
$var reg 1 ?# g $end
$var reg 1 @# h $end
$var reg 8 A# o[0:7] $end
$upscope $end
$scope module mux0 $end
$var reg 3 B# s[0:2] $end
$var reg 8 C# i[0:7] $end
$var reg 1 D# o $end
$var reg 8 E# outs[0:7] $end
$upscope $end
$scope module mux1 $end
$var reg 3 F# s[0:2] $end
$var reg 8 G# i[0:7] $end
$var reg 1 H# o $end
$var reg 8 I# outs[0:7] $end
$upscope $end
$scope module mux2 $end
$var reg 3 J# s[0:2] $end
$var reg 8 K# i[0:7] $end
$var reg 1 L# o $end
$var reg 8 M# outs[0:7] $end
$upscope $end
$upscope $end
$enddefinitions $end
#0
b0000000 !
b00 "
0#
b000 $
b00 %
b00 &
b00 '
0(
b00000000 )
b00000000 *
b00000000 +
b00000000 ,
b0000 -
b0000 .
b0000 /
b0000 0
b0000 1
b0000 2
b0000 3
b0000 4
b00 5
b00 6
b00 7
b11 8
b00 9
b11 :
b00 ;
b01 <
0=
0>
0?
0@
0A
0B
0C
0D
b00010100 E
b00010101 F
b00000000 G
b000 H
0I
b00000000 J
b000 K
0L
b00000000 M
b000 N
0O
b00000000 P
b000 Q
0R
b00000000 S
0T
0U
0V
0W
b0000 X
0Y
0Z
0[
0\
b0000 ]
0^
0_
0`
0a
b0000 b
0c
0d
0e
0f
b0000 g
0h
0i
0j
0k
b0000 l
0m
0n
0o
0p
b0000 q
0r
0s
0t
0u
b0000 v
0w
0x
0y
0z
b0000 {
b00 |
b00 }
b00 !"
b00 ""
b00 #"
b00 $"
b00 %"
b00 &"
b00 '"
b00 ("
b11 )"
b00 *"
b00 +"
b00 ,"
0-"
0."
0/"
00"
01"
02"
03"
04"
U5"
06"
07"
08"
09"
0:"
U;"
b00 <"
b00 ="
b11 >"
0?"
b11 @"
b00 A"
b11 B"
b00 C"
b11 D"
b11 E"
0F"
0G"
0H"
0I"
1J"
0K"
1L"
0M"
UN"
0O"
1P"
0Q"
1R"
0S"
UT"
b00 U"
b00 V"
b00 W"
0X"
b00 Y"
b00 Z"
b00 ["
b00 \"
b00 ]"
b00 ^"
0_"
0`"
0a"
0b"
0c"
0d"
0e"
0f"
Ug"
0h"
0i"
0j"
0k"
0l"
Um"
b00 n"
b00 o"
b01 p"
0q"
b00 r"
b01 s"
b01 t"
0u"
0v"
0w"
0x"
1y"
0z"
1{"
0|"
U}"
0!#
0"#
0##
0$#
0%#
U&#
0'#
0(#
0)#
1*#
0+#
1,#
0-#
0.#
b00010100 /#
00#
01#
02#
13#
04#
15#
06#
17#
b00010101 8#
09#
0:#
0;#
0<#
0=#
0>#
0?#
0@#
b00000000 A#
b000 B#
b00010100 C#
0D#
b00000000 E#
b000 F#
b00010101 G#
0H#
b00000000 I#
b000 J#
b00000000 K#
0L#
b00000000 M#
#10000000
b0000001 !
b01 &
b10000000 ,
b0001 -
1R
b10000000 S
1W
b0001 X
b01 }
#20000000
b0000010 !
b10 &
b10000000 +
b00000000 ,
b0010 -
1O
b10000000 P
0R
b00000000 S
1V
0W
b0010 X
b10 }
#30000000
b0000011 !
b11 &
b10000000 ,
b0011 -
1R
b10000000 S
1W
b0011 X
b11 }
#40000000
b0000100 !
b01 %
b00 &
b10000000 *
b00000000 +
b00000000 ,
b0100 -
1L
b10000000 M
0O
b00000000 P
0R
b00000000 S
1U
0V
0W
b0100 X
b01 |
b00 }
#50000000
b0000101 !
b01 "
b01 &
b01 '
b10000000 ,
b0101 -
b01 5
b10010101 F
1R
b10000000 S
1W
b0101 X
b01 }
b01 !"
10#
b10010101 8#
b10010101 G#
1H#
b10000000 I#
#60000000
b0000110 !
b00 "
b10 &
b00 '
b10000000 +
b00000000 ,
b0110 -
b00 5
b00010101 F
1O
b10000000 P
0R
b00000000 S
1V
0W
b0110 X
b10 }
b00 !"
00#
b00010101 8#
b00010101 G#
0H#
b00000000 I#
#70000000
b0000111 !
b01 "
b11 &
b01 '
b10000000 ,
b0111 -
b01 5
b10010101 F
1R
b10000000 S
1W
b0111 X
b11 }
b01 !"
10#
b10010101 8#
b10010101 G#
1H#
b10000000 I#
#80000000
b0001000 !
b00 "
b10 %
b00 &
b00 '
b10000000 )
b00000000 *
b00000000 +
b00000000 ,
b1000 -
b00 5
b00010101 F
1I
b10000000 J
0L
b00000000 M
0O
b00000000 P
0R
b00000000 S
1T
0U
0V
0W
b1000 X
b10 |
b00 }
b00 !"
00#
b00010101 8#
b00010101 G#
0H#
b00000000 I#
#90000000
b0001001 !
b01 &
b10000000 ,
b1001 -
1R
b10000000 S
1W
b1001 X
b01 }
#100000000
b0001010 !
b10 "
b10 &
b10 '
b10000000 +
b00000000 ,
b1010 -
b10 5
b10010100 E
1O
b10000000 P
0R
b00000000 S
1V
0W
b1010 X
b10 }
b10 !"
1'#
b10010100 /#
b10010100 C#
1D#
b10000000 E#
#110000000
b0001011 !
b11 &
b10000000 ,
b1011 -
1R
b10000000 S
1W
b1011 X
b11 }
#120000000
b0001100 !
b00 "
b11 %
b00 &
b00 '
b10000000 *
b00000000 +
b00000000 ,
b1100 -
b00 5
b00010100 E
1L
b10000000 M
0O
b00000000 P
0R
b00000000 S
1U
0V
0W
b1100 X
b11 |
b00 }
b00 !"
0'#
b00010100 /#
b00010100 C#
0D#
b00000000 E#
#130000000
b0001101 !
b01 "
b01 &
b01 '
b10000000 ,
b1101 -
b01 5
b10010101 F
1R
b10000000 S
1W
b1101 X
b01 }
b01 !"
10#
b10010101 8#
b10010101 G#
1H#
b10000000 I#
#140000000
b0001110 !
b10 "
b10 &
b10 '
b10000000 +
b00000000 ,
b1110 -
b10 5
b10010100 E
b00010101 F
1O
b10000000 P
0R
b00000000 S
1V
0W
b1110 X
b10 }
b10 !"
1'#
b10010100 /#
00#
b00010101 8#
b10010100 C#
1D#
b10000000 E#
b00010101 G#
0H#
b00000000 I#
#150000000
b0001111 !
b11 "
b11 &
b11 '
b10000000 ,
b1111 -
b11 5
b10010101 F
1R
b10000000 S
1W
b1111 X
b11 }
b11 !"
10#
b10010101 8#
b10010101 G#
1H#
b10000000 I#
#160000000
b0010000 !
b00 "
b001 $
b00 %
b00 &
b00 '
b00000000 )
b00000000 *
b00000000 +
b00000000 ,
b0000 -
b00 5
b00010100 E
b00010101 F
b001 H
0I
b00000000 J
b001 K
0L
b00000000 M
b001 N
0O
b00000000 P
b001 Q
0R
b00000000 S
0T
0U
0V
0W
b0000 X
b00 |
b00 }
b00 !"
0'#
b00010100 /#
00#
b00010101 8#
b001 B#
b00010100 C#
0D#
b00000000 E#
b001 F#
b00010101 G#
0H#
b00000000 I#
b001 J#
#170000000
b0010001 !
b01 "
b01 &
b01 '
b01000000 ,
b0001 .
b01 6
b01010101 F
1R
b01000000 S
1\
b0001 ]
b01 #"
b01 $"
11#
b01010101 8#
b01010101 G#
1H#
b01000000 I#
#180000000
b0010010 !
b10 "
b10 &
b10 '
b01000000 +
b00000000 ,
b0010 .
b10 6
b01010100 E
b00010101 F
1O
b01000000 P
0R
b00000000 S
1[
0\
b0010 ]
b10 #"
b10 $"
1(#
b01010100 /#
01#
b00010101 8#
b01010100 C#
1D#
b01000000 E#
b00010101 G#
0H#
b00000000 I#
#190000000
b0010011 !
b11 "
b11 &
b11 '
b01000000 ,
b0011 .
b11 6
b01010101 F
1R
b01000000 S
1\
b0011 ]
b11 #"
b11 $"
11#
b01010101 8#
b01010101 G#
1H#
b01000000 I#
#200000000
b0010100 !
b01 "
b01 %
b00 &
b01 '
b01000000 *
b00000000 +
b00000000 ,
b0100 .
b01 6
b00010100 E
1L
b01000000 M
0O
b00000000 P
0R
b00000000 S
1Z
0[
0\
b0100 ]
b01 ""
b00 #"
b01 $"
0(#
b00010100 /#
b00010100 C#
0D#
b00000000 E#
#210000000
b0010101 !
b01 &
b01000000 ,
b0101 .
1R
b01000000 S
1\
b0101 ]
b01 #"
#220000000
b0010110 !
b11 "
b10 &
b11 '
b01000000 +
b00000000 ,
b0110 .
b11 6
b01010100 E
1O
b01000000 P
0R
b00000000 S
1[
0\
b0110 ]
b10 #"
b11 $"
1(#
b01010100 /#
b01010100 C#
1D#
b01000000 E#
#230000000
b0010111 !
b11 &
b01000000 ,
b0111 .
1R
b01000000 S
1\
b0111 ]
b11 #"
#240000000
b0011000 !
b10 "
b10 %
b00 &
b10 '
b01000000 )
b00000000 *
b00000000 +
b00000000 ,
b1000 .
b10 6
b00010101 F
1I
b01000000 J
0L
b00000000 M
0O
b00000000 P
0R
b00000000 S
1Y
0Z
0[
0\
b1000 ]
b10 ""
b00 #"
b10 $"
01#
b00010101 8#
b00010101 G#
0H#
b00000000 I#
#250000000
b0011001 !
b11 "
b01 &
b11 '
b01000000 ,
b1001 .
b11 6
b01010101 F
1R
b01000000 S
1\
b1001 ]
b01 #"
b11 $"
11#
b01010101 8#
b01010101 G#
1H#
b01000000 I#
#260000000
b0011010 !
b10 "
b10 &
b10 '
b01000000 +
b00000000 ,
b1010 .
b10 6
b00010101 F
1O
b01000000 P
0R
b00000000 S
1[
0\
b1010 ]
b10 #"
b10 $"
01#
b00010101 8#
b00010101 G#
0H#
b00000000 I#
#270000000
b0011011 !
b11 "
b11 &
b11 '
b01000000 ,
b1011 .
b11 6
b01010101 F
1R
b01000000 S
1\
b1011 ]
b11 #"
b11 $"
11#
b01010101 8#
b01010101 G#
1H#
b01000000 I#
#280000000
b0011100 !
b11 %
b00 &
b01000000 *
b00000000 +
b00000000 ,
b1100 .
1L
b01000000 M
0O
b00000000 P
0R
b00000000 S
1Z
0[
0\
b1100 ]
b11 ""
b00 #"
#290000000
b0011101 !
b01 &
b01000000 ,
b1101 .
1R
b01000000 S
1\
b1101 ]
b01 #"
#300000000
b0011110 !
b10 &
b01000000 +
b00000000 ,
b1110 .
1O
b01000000 P
0R
b00000000 S
1[
0\
b1110 ]
b10 #"
#310000000
b0011111 !
b11 &
b01000000 ,
b1111 .
1R
b01000000 S
1\
b1111 ]
b11 #"
#320000000
b0100000 !
b00 "
b010 $
b00 %
b00 &
b00 '
b00000000 )
b00000000 *
b00000000 +
b00000000 ,
b0000 .
b00 6
b00010100 E
b00010101 F
b010 H
0I
b00000000 J
b010 K
0L
b00000000 M
b010 N
0O
b00000000 P
b010 Q
0R
b00000000 S
0Y
0Z
0[
0\
b0000 ]
b00 ""
b00 #"
b00 $"
0(#
b00010100 /#
01#
b00010101 8#
b010 B#
b00010100 C#
0D#
b00000000 E#
b010 F#
b00010101 G#
0H#
b00000000 I#
b010 J#
#330000000
b0100001 !
b01 "
b01 &
b01 '
b00100000 ,
b0001 /
b01 7
b00110101 F
1R
b00100000 S
1a
b0001 b
b01 &"
b01 '"
12#
b00110101 8#
b00110101 G#
1H#
b00100000 I#
#340000000
b0100010 !
b10 "
b10 &
b10 '
b00100000 +
b00000000 ,
b0010 /
b10 7
b00110100 E
b00010101 F
1O
b00100000 P
0R
b00000000 S
1`
0a
b0010 b
b10 &"
b10 '"
1)#
b00110100 /#
02#
b00010101 8#
b00110100 C#
1D#
b00100000 E#
b00010101 G#
0H#
b00000000 I#
#350000000
b0100011 !
b11 "
b11 &
b11 '
b00100000 ,
b0011 /
b11 7
b00110101 F
1R
b00100000 S
1a
b0011 b
b11 &"
b11 '"
12#
b00110101 8#
b00110101 G#
1H#
b00100000 I#
#360000000
b0100100 !
b01 "
b01 %
b00 &
b01 '
b00100000 *
b00000000 +
b00000000 ,
b0100 /
b01 7
b00010100 E
1L
b00100000 M
0O
b00000000 P
0R
b00000000 S
1_
0`
0a
b0100 b
b01 %"
b00 &"
b01 '"
0)#
b00010100 /#
b00010100 C#
0D#
b00000000 E#
#370000000
b0100101 !
b00 "
b01 &
b00 '
b00100000 ,
b0101 /
b00 7
b00010101 F
1R
b00100000 S
1a
b0101 b
b01 &"
b00 '"
02#
b00010101 8#
b00010101 G#
0H#
b00000000 I#
#380000000
b0100110 !
b11 "
b10 &
b11 '
b00100000 +
b00000000 ,
b0110 /
b11 7
b00110100 E
b00110101 F
1O
b00100000 P
0R
b00000000 S
1`
0a
b0110 b
b10 &"
b11 '"
1)#
b00110100 /#
12#
b00110101 8#
b00110100 C#
1D#
b00100000 E#
b00110101 G#
1H#
b00100000 I#
#390000000
b0100111 !
b10 "
b11 &
b10 '
b00100000 ,
b0111 /
b10 7
b00010101 F
1R
b00100000 S
1a
b0111 b
b11 &"
b10 '"
02#
b00010101 8#
b00010101 G#
0H#
b00000000 I#
#400000000
b0101000 !
b10 %
b00 &
b00100000 )
b00000000 *
b00000000 +
b00000000 ,
b1000 /
1I
b00100000 J
0L
b00000000 M
0O
b00000000 P
0R
b00000000 S
1^
0_
0`
0a
b1000 b
b10 %"
b00 &"
#410000000
b0101001 !
b11 "
b01 &
b11 '
b00100000 ,
b1001 /
b11 7
b00110101 F
1R
b00100000 S
1a
b1001 b
b01 &"
b11 '"
12#
b00110101 8#
b00110101 G#
1H#
b00100000 I#
#420000000
b0101010 !
b00 "
b10 &
b00 '
b00100000 +
b00000000 ,
b1010 /
b00 7
b00010100 E
b00010101 F
1O
b00100000 P
0R
b00000000 S
1`
0a
b1010 b
b10 &"
b00 '"
0)#
b00010100 /#
02#
b00010101 8#
b00010100 C#
0D#
b00000000 E#
b00010101 G#
0H#
b00000000 I#
#430000000
b0101011 !
b01 "
b11 &
b01 '
b00100000 ,
b1011 /
b01 7
b00110101 F
1R
b00100000 S
1a
b1011 b
b11 &"
b01 '"
12#
b00110101 8#
b00110101 G#
1H#
b00100000 I#
#440000000
b0101100 !
b11 "
b11 %
b00 &
b11 '
b00100000 *
b00000000 +
b00000000 ,
b1100 /
b11 7
b00110100 E
1L
b00100000 M
0O
b00000000 P
0R
b00000000 S
1_
0`
0a
b1100 b
b11 %"
b00 &"
b11 '"
1)#
b00110100 /#
b00110100 C#
1D#
b00100000 E#
#450000000
b0101101 !
b10 "
b01 &
b10 '
b00100000 ,
b1101 /
b10 7
b00010101 F
1R
b00100000 S
1a
b1101 b
b01 &"
b10 '"
02#
b00010101 8#
b00010101 G#
0H#
b00000000 I#
#460000000
b0101110 !
b01 "
b10 &
b01 '
b00100000 +
b00000000 ,
b1110 /
b01 7
b00010100 E
b00110101 F
1O
b00100000 P
0R
b00000000 S
1`
0a
b1110 b
b10 &"
b01 '"
0)#
b00010100 /#
12#
b00110101 8#
b00010100 C#
0D#
b00000000 E#
b00110101 G#
1H#
b00100000 I#
#470000000
b0101111 !
b00 "
b11 &
b00 '
b00100000 ,
b1111 /
b00 7
b00010101 F
1R
b00100000 S
1a
b1111 b
b11 &"
b00 '"
02#
b00010101 8#
b00010101 G#
0H#
b00000000 I#
#480000000
b0110000 !
b11 "
b011 $
b00 %
b00 &
b11 '
b00000000 )
b00000000 *
b00000000 +
b00000000 ,
b0000 /
b011 H
0I
b00000000 J
b011 K
0L
b00000000 M
b011 N
0O
b00000000 P
b011 Q
0R
b00000000 S
0^
0_
0`
0a
b0000 b
b00 %"
b00 &"
b011 B#
1D#
b00010000 E#
b011 F#
1H#
b00010000 I#
b011 J#
#490000000
b0110001 !
b01 &
b00010000 ,
b0001 0
1R
b00010000 S
1f
b0001 g
#500000000
b0110010 !
b10 &
b00010000 +
b00000000 ,
b0010 0
1O
b00010000 P
0R
b00000000 S
1e
0f
b0010 g
#510000000
b0110011 !
b11 &
b00010000 ,
b0011 0
1R
b00010000 S
1f
b0011 g
#520000000
b0110100 !
b10 "
b01 %
b00 &
b10 '
b00010000 *
b00000000 +
b00000000 ,
b0100 0
b10 8
b00000101 F
1L
b00010000 M
0O
b00000000 P
0R
b00000000 S
1d
0e
0f
b0100 g
b01 ("
b10 )"
03#
b00000101 8#
b00000101 G#
0H#
b00000000 I#
#530000000
b0110101 !
b01 &
b00010000 ,
b0101 0
1R
b00010000 S
1f
b0101 g
#540000000
b0110110 !
b10 &
b00010000 +
b00000000 ,
b0110 0
1O
b00010000 P
0R
b00000000 S
1e
0f
b0110 g
#550000000
b0110111 !
b11 &
b00010000 ,
b0111 0
1R
b00010000 S
1f
b0111 g
#560000000
b0111000 !
b01 "
b10 %
b00 &
b01 '
b00010000 )
b00000000 *
b00000000 +
b00000000 ,
b1000 0
b01 8
b00000100 E
b00010101 F
1I
b00010000 J
0L
b00000000 M
0O
b00000000 P
0R
b00000000 S
1c
0d
0e
0f
b1000 g
b10 ("
b01 )"
0*#
b00000100 /#
13#
b00010101 8#
b00000100 C#
0D#
b00000000 E#
b00010101 G#
1H#
b00010000 I#
#570000000
b0111001 !
b01 &
b00010000 ,
b1001 0
1R
b00010000 S
1f
b1001 g
#580000000
b0111010 !
b10 &
b00010000 +
b00000000 ,
b1010 0
1O
b00010000 P
0R
b00000000 S
1e
0f
b1010 g
#590000000
b0111011 !
b11 &
b00010000 ,
b1011 0
1R
b00010000 S
1f
b1011 g
#600000000
b0111100 !
b00 "
b11 %
b00 &
b00 '
b00010000 *
b00000000 +
b00000000 ,
b1100 0
b00 8
b00000101 F
1L
b00010000 M
0O
b00000000 P
0R
b00000000 S
1d
0e
0f
b1100 g
b11 ("
b00 )"
03#
b00000101 8#
b00000101 G#
0H#
b00000000 I#
#610000000
b0111101 !
b01 &
b00010000 ,
b1101 0
1R
b00010000 S
1f
b1101 g
#620000000
b0111110 !
b10 &
b00010000 +
b00000000 ,
b1110 0
1O
b00010000 P
0R
b00000000 S
1e
0f
b1110 g
#630000000
b0111111 !
b11 &
b00010000 ,
b1111 0
1R
b00010000 S
1f
b1111 g
#640000000
b1000000 !
b100 $
b00 %
b00 &
b00000000 )
b00000000 *
b00000000 +
b00000000 ,
b0000 0
b11 8
b00010100 E
b00010101 F
b100 H
0I
b00000000 J
b100 K
0L
b00000000 M
b100 N
0O
b00000000 P
b100 Q
0R
b00000000 S
0c
0d
0e
0f
b0000 g
b00 ("
b11 )"
1*#
b00010100 /#
13#
b00010101 8#
b100 B#
b00010100 C#
b100 F#
b00010101 G#
b100 J#
#650000000
b1000001 !
b01 "
b01 &
b01 '
b00001000 ,
b0001 1
b01 9
b00011101 F
1R
b00001000 S
1k
b0001 l
b01 +"
b01 ,"
11"
13"
14#
b00011101 8#
b00011101 G#
1H#
b00001000 I#
#660000000
b1000010 !
b10 "
b10 &
b10 '
b00001000 +
b00000000 ,
b0010 1
b10 9
b00011100 E
b00010101 F
1O
b00001000 P
0R
b00000000 S
1j
0k
b0010 l
b10 +"
b10 ,"
01"
03"
17"
19"
1+#
b00011100 /#
04#
b00010101 8#
b00011100 C#
1D#
b00001000 E#
b00010101 G#
0H#
b00000000 I#
#670000000
b1000011 !
b11 "
b11 &
b11 '
b00001000 ,
b0011 1
b11 9
b00011101 F
1R
b00001000 S
1k
b0011 l
b11 +"
b11 ,"
11"
13"
14#
b00011101 8#
b00011101 G#
1H#
b00001000 I#
#680000000
b1000100 !
b01 "
b01 %
b00 &
b01 '
b00001000 *
b00000000 +
b00000000 ,
b0100 1
b01 9
b00010100 E
1L
b00001000 M
0O
b00000000 P
0R
b00000000 S
1i
0j
0k
b0100 l
b01 *"
b00 +"
b01 ,"
10"
01"
07"
09"
0+#
b00010100 /#
b00010100 C#
0D#
b00000000 E#
#690000000
b1000101 !
b10 "
b01 &
b10 '
b00001000 ,
b0101 1
b10 9
b00011100 E
b00010101 F
1R
b00001000 S
1k
b0101 l
b01 +"
b10 ,"
1."
11"
03"
14"
18"
19"
1+#
b00011100 /#
04#
b00010101 8#
b00011100 C#
1D#
b00001000 E#
b00010101 G#
0H#
b00000000 I#
#700000000
b1000110 !
b11 "
0#
b10 &
b11 '
0(
b00001000 +
b00000000 ,
b0110 1
b11 9
0A
b00011100 E
b00011101 F
b00000000 G
1O
b00001000 P
0R
b00000000 S
1j
0k
b0110 l
b10 +"
b11 ,"
0-"
0."
01"
13"
04"
17"
08"
19"
0:"
1+#
b00011100 /#
14#
b00011101 8#
0=#
b00000000 A#
b00011100 C#
1D#
b00001000 E#
b00011101 G#
1H#
b00001000 I#
b00000000 K#
0L#
b00000000 M#
#710000000
b1000111 !
b00 "
1#
b11 &
b00 '
1(
b00001000 ,
b0111 1
b00 9
1A
b00010100 E
b00010101 F
b00001000 G
1R
b00001000 S
1k
b0111 l
b11 +"
b00 ,"
1-"
1."
11"
03"
14"
18"
09"
1:"
0+#
b00010100 /#
04#
b00010101 8#
1=#
b00001000 A#
b00010100 C#
0D#
b00000000 E#
b00010101 G#
0H#
b00000000 I#
b00001000 K#
1L#
b00001000 M#
#720000000
b1001000 !
b10 "
0#
b10 %
b00 &
b10 '
0(
b00001000 )
b00000000 *
b00000000 +
b00000000 ,
b1000 1
b10 9
0A
b00011100 E
b00000000 G
1I
b00001000 J
0L
b00000000 M
0O
b00000000 P
0R
b00000000 S
1h
0i
0j
0k
b1000 l
b10 *"
b00 +"
b10 ,"
0-"
0."
00"
01"
04"
16"
07"
08"
19"
0:"
1+#
b00011100 /#
0=#
b00000000 A#
b00011100 C#
1D#
b00001000 E#
b00000000 K#
0L#
b00000000 M#
#730000000
b1001001 !
b11 "
b01 &
b11 '
b00001000 ,
b1001 1
b11 9
b00011101 F
1R
b00001000 S
1k
b1001 l
b01 +"
b11 ,"
11"
13"
14#
b00011101 8#
b00011101 G#
1H#
b00001000 I#
