model/xor_2_2_test.vcd
$date
  Fri Feb 15 00:35:27 2019
$end
$version
  GHDL v0
$end
$timescale
  1 fs
$end
$var reg 2 ! a_in[0:1] $end
$var reg 2 " b_in[0:1] $end
$var reg 2 # o1[0:1] $end
$scope module uut $end
$var reg 2 $ a[0:1] $end
$var reg 2 % b[0:1] $end
$var reg 2 & o[0:1] $end
$upscope $end
$enddefinitions $end
#0
b00 !
b00 "
b00 #
b00 $
b00 %
b00 &
#10000000
b01 !
b01 #
b01 $
b01 &
#20000000
b10 !
b10 #
b10 $
b10 &
#30000000
b11 !
b11 #
b11 $
b11 &
#40000000
b00 !
b01 "
b01 #
b00 $
b01 %
b01 &
#50000000
b01 !
b00 #
b01 $
b00 &
#60000000
b10 !
b11 #
b10 $
b11 &
#70000000
b11 !
b10 #
b11 $
b10 &
#80000000
b00 !
b10 "
b00 $
b10 %
#90000000
b01 !
b11 #
b01 $
b11 &
#100000000
b10 !
b00 #
b10 $
b00 &
#110000000
b11 !
b01 #
b11 $
b01 &
#120000000
b00 !
b11 "
b11 #
b00 $
b11 %
b11 &
#130000000
b01 !
b10 #
b01 $
b10 &
#140000000
b10 !
b01 #
b10 $
b01 &
#150000000
b11 !
b00 #
b11 $
b00 &
