test/demux_tb.vcd
$date
  Thu Feb 14 09:47:58 2019
$end
$version
  GHDL v0
$end
$timescale
  1 fs
$end
$var reg 3 ! test_s[0:2] $end
$var reg 1 " test_i $end
$var reg 8 # test_o[0:7] $end
$scope module uut $end
$var reg 3 $ s[0:2] $end
$var reg 1 % i $end
$var reg 8 & o[0:7] $end
$upscope $end
$enddefinitions $end
#0
b000 !
0"
b00000000 #
b000 $
0%
b00000000 &
#10000000
1"
b00000001 #
1%
b00000001 &
#20000000
b001 !
0"
b00000000 #
b001 $
0%
b00000000 &
#30000000
1"
b00000010 #
1%
b00000010 &
#40000000
b010 !
0"
b00000000 #
b010 $
0%
b00000000 &
#50000000
1"
b00000100 #
1%
b00000100 &
#60000000
b011 !
0"
b00000000 #
b011 $
0%
b00000000 &
#70000000
1"
b00001000 #
1%
b00001000 &
#80000000
b100 !
0"
b00000000 #
b100 $
0%
b00000000 &
#90000000
1"
b00010000 #
1%
b00010000 &
#100000000
b101 !
0"
b00000000 #
b101 $
0%
b00000000 &
#110000000
1"
b00100000 #
1%
b00100000 &
#120000000
b110 !
0"
b00000000 #
b110 $
0%
b00000000 &
#130000000
1"
b01000000 #
1%
b01000000 &
#140000000
b111 !
0"
b00000000 #
b111 $
0%
b00000000 &
#150000000
1"
b10000000 #
1%
b10000000 &
