test/parallel_adder_test.vcd
$date
  Wed Feb 13 00:45:21 2019
$end
$version
  GHDL v0
$end
$timescale
  1 fs
$end
$var reg 2 ! a_in[0:1] $end
$var reg 2 " b_in[0:1] $end
$var reg 2 # o1[0:1] $end
$var reg 1 $ c_out1 $end
$scope module uut $end
$var reg 2 % a[0:1] $end
$var reg 2 & b[0:1] $end
$var reg 2 ' o[0:1] $end
$var reg 1 ( c_out_2 $end
$var reg 1 ) c_out_1 $end
$var reg 1 * no_c_in $end
$scope module add0 $end
$var reg 1 + a $end
$var reg 1 , b $end
$var reg 1 - c_in $end
$var reg 1 . o $end
$var reg 1 / c_out $end
$var reg 1 0 sum_1 $end
$upscope $end
$scope module add1 $end
$var reg 1 1 a $end
$var reg 1 2 b $end
$var reg 1 3 c_in $end
$var reg 1 4 o $end
$var reg 1 5 c_out $end
$var reg 1 6 sum_1 $end
$upscope $end
$upscope $end
$enddefinitions $end
#0
b00 !
b00 "
b00 #
0$
b00 %
b00 &
b00 '
0(
0)
0*
0+
0,
0-
0.
0/
U0
01
02
03
04
05
U6
#10000000
b01 !
b01 #
b01 %
b01 '
1+
1.
#20000000
b10 !
b10 #
b10 %
b10 '
0+
0.
11
14
#30000000
b11 !
b11 #
b11 %
b11 '
1+
1.
#40000000
b00 !
b01 "
b01 #
b00 %
b01 &
b01 '
0+
1,
01
04
#50000000
b01 !
b10 #
b01 %
b10 '
1)
1+
0.
1/
13
14
#60000000
b10 !
b11 #
0$
b10 %
b11 '
0(
0)
0+
1.
0/
11
03
14
05
#70000000
b11 !
b00 #
1$
b11 %
b00 '
1(
1)
1+
0.
1/
13
04
15
#80000000
b00 !
b10 "
b10 #
0$
b00 %
b10 &
b10 '
0(
0)
0+
0,
0/
01
12
03
14
05
#90000000
b01 !
b11 #
b01 %
b11 '
1+
1.
#100000000
b10 !
b00 #
1$
b10 %
b00 '
1(
0+
0.
11
04
15
#110000000
b11 !
b01 #
b11 %
b01 '
1+
1.
#120000000
b00 !
b11 "
b11 #
0$
b00 %
b11 &
b11 '
0(
0+
1,
01
14
05
#130000000
b01 !
b00 #
1$
b01 %
b00 '
1(
1)
1+
0.
1/
13
04
15
#140000000
b10 !
b01 #
b10 %
b01 '
0)
0+
1.
0/
11
03
04
#150000000
b11 !
b10 #
b11 %
b10 '
1)
1+
0.
1/
13
14
