test/subtract_2_2_2c_tb.vcd
$date
  Thu Feb 14 15:34:56 2019
$end
$version
  GHDL v0
$end
$timescale
  1 fs
$end
$var reg 2 ! a_in[0:1] $end
$var reg 2 " b_in[0:1] $end
$var reg 2 # o1[0:1] $end
$var reg 1 $ c_out1 $end
$scope module uut $end
$var reg 2 % a[0:1] $end
$var reg 2 & b[0:1] $end
$var reg 2 ' o[0:1] $end
$var reg 1 ( c_out_2 $end
$var reg 2 ) complement[0:1] $end
$scope module comp $end
$var reg 2 * a[0:1] $end
$var reg 2 + o[0:1] $end
$upscope $end
$scope module sub0 $end
$var reg 2 , a[0:1] $end
$var reg 2 - b[0:1] $end
$var reg 2 . o[0:1] $end
$var reg 1 / c_out_2 $end
$var reg 1 0 c_out_1 $end
$var reg 1 1 no_c_in $end
$scope module add0 $end
$var reg 1 2 a $end
$var reg 1 3 b $end
$var reg 1 4 c_in $end
$var reg 1 5 o $end
$var reg 1 6 c_out $end
$var reg 1 7 sum_1 $end
$upscope $end
$scope module add1 $end
$var reg 1 8 a $end
$var reg 1 9 b $end
$var reg 1 : c_in $end
$var reg 1 ; o $end
$var reg 1 < c_out $end
$var reg 1 = sum_1 $end
$upscope $end
$upscope $end
$upscope $end
$enddefinitions $end
#0
b00 !
b00 "
b00 #
0$
b00 %
b00 &
b00 '
0(
b00 )
b00 *
b00 +
b00 ,
b00 -
b00 .
0/
00
01
02
03
04
05
06
U7
08
09
0:
0;
0<
U=
#10000000
b01 !
b01 #
b01 %
b01 '
b01 ,
b01 .
12
15
#20000000
b10 !
b10 #
b10 %
b10 '
b10 ,
b10 .
02
05
18
1;
#30000000
b11 !
b11 #
b11 %
b11 '
b11 ,
b11 .
12
15
#40000000
b00 !
b01 "
b11 #
b00 %
b01 &
b11 '
b11 )
b01 *
b11 +
b00 ,
b11 -
b11 .
02
13
15
08
19
1;
#50000000
b01 !
b00 #
1$
b01 %
b00 '
1(
b01 ,
b00 .
1/
10
12
05
16
1:
0;
1<
#60000000
b10 !
b01 #
b10 %
b01 '
b10 ,
b01 .
00
02
15
06
18
0:
0;
#70000000
b11 !
b10 #
b11 %
b10 '
b11 ,
b10 .
10
12
05
16
1:
1;
#80000000
b00 !
b10 "
b10 #
0$
b00 %
b10 &
b10 '
0(
b10 )
b10 *
b10 +
b00 ,
b10 -
b10 .
0/
00
02
03
05
06
08
0:
1;
0<
#90000000
b01 !
b11 #
b01 %
b11 '
b01 ,
b11 .
12
15
#100000000
b10 !
b00 #
1$
b10 %
b00 '
1(
b10 ,
b00 .
1/
02
05
18
0;
1<
#110000000
b11 !
b01 #
b11 %
b01 '
b11 ,
b01 .
12
15
#120000000
b00 !
b11 "
b01 #
0$
b00 %
b11 &
b01 '
0(
b01 )
b11 *
b01 +
b00 ,
b01 -
b01 .
0/
02
13
15
08
09
0;
0<
#130000000
b01 !
b10 #
b01 %
b10 '
b01 ,
b10 .
10
12
05
16
1:
1;
#140000000
b10 !
b11 #
0$
b10 %
b11 '
0(
b10 ,
b11 .
0/
00
02
15
06
18
0:
1;
0<
#150000000
b11 !
b00 #
1$
b11 %
b00 '
1(
b11 ,
b00 .
1/
10
12
05
16
1:
0;
1<
